{
  "name": "ettv",
  "language": ["hi", "en"],
  "domains": ["ettvcentral.com", "ettv.unblockedfor.me"],
  "base_url": "http://xlx723.dyndns.org/iproxy/miniProxy.php?https://www.ettvcentral.com",
  "search_url_format_episode": {
    "string_format": "/torrents-search.php?search=%s+s%02de%02d",
    "replacement": [
      "title",
      "season_int",
      "episode_int"
    ]
  },
  "search_url_format_movie": {
    "string_format": "/torrents-search.php?search=%s+%04d",
    "replacement": [
      "title",
      "year_int"
    ]
  },  
  "more_pages_indicator": "",
  "next_page_path" : "",
  "next_page_path_attr": "",
  "links_on_first_page": false,
  "drill_down_path": "table tr td:eq(1) a[href^=/torrent]",
  "drill_down_path_attr": "abs:href",
  "is_torrent": true,
  "is_direct": false,
  "links_container_path": "div.col-md-5",
  "link_path": "",
  "link_path_attr": "",
  "title_path": "dd.col-md-auto:eq(1)",
  "title_path_attr": "",
  "details_path": "|title_path|",
  "details_path_attr": "",
  "magnet_path": "li.list-group-item a[href^=magnet]",
  "magnet_path_attr": "href",
  "seeders_path": "ul.lh-05 span:eq(1)",
  "seeders_path_attr": "",
  "filesize_path": "dd.col-md-2:eq(1)",
  "filesize_path_attr": "",
  "quality_path": "|title_path|",
  "quality_path_attr": "",
  "info_path": "|title_path|",
  "info_path_attr": ""
}
